<svg width="40" height="40" viewBox="0 0 40 40" fill="none" xmlns="http://www.w3.org/2000/svg">
<g clip-path="url(#clip0)">
<rect x="1.79688" y="1.79688" width="36.4062" height="36.4062" rx="18.2031" fill="#3A4BE4"/>
<path d="M8.90625 17.1875C8.90625 15.2459 10.4802 13.6719 12.4219 13.6719H19.9609H27.5C29.4416 13.6719 31.0156 15.2459 31.0156 17.1875V22.8125C31.0156 24.7541 29.4416 26.3281 27.5 26.3281H12.4219C10.4802 26.3281 8.90625 24.7541 8.90625 22.8125V17.1875Z" fill="white"/>
<ellipse cx="8.90625" cy="20" rx="2.26562" ry="2.26562" fill="#3A4BE4"/>
<ellipse cx="30.9375" cy="20" rx="2.26563" ry="2.26562" fill="#3A4BE4"/>
<ellipse cx="16.4844" cy="20" rx="1.5625" ry="1.5625" fill="#3A4BE4"/>
<ellipse cx="23.3594" cy="20" rx="1.5625" ry="1.5625" fill="#3A4BE4"/>
</g>
<defs>
<clipPath id="clip0">
<rect width="40" height="40" fill="white"/>
</clipPath>
</defs>
</svg>
